-------------------------------------------------------------------------------
Test set: fr.epsi.capturewebcam.CaptureTest
-------------------------------------------------------------------------------
Tests run: 1, Failures: 0, Errors: 0, Skipped: 0, Time elapsed: 0 sec
